lab1_cw/full_adder.vcd
$date
	Thu Jun 18 15:42:08 2026
$end
$version
	Icarus Verilog
$end
$timescale
	1ps
$end
$scope module full_adder_tb $end
$scope module uut $end
$var wire 1 ! a $end
$var wire 1 " b $end
$var wire 1 # carry $end
$var wire 1 $ cin $end
$var wire 1 % sum $end
$var wire 1 & s1 $end
$var wire 1 ' c2 $end
$var wire 1 ( c1 $end
$scope module ha1 $end
$var wire 1 ! a $end
$var wire 1 " b $end
$var wire 1 ( carry $end
$var wire 1 & sum $end
$upscope $end
$scope module ha2 $end
$var wire 1 & a $end
$var wire 1 $ b $end
$var wire 1 ' carry $end
$var wire 1 % sum $end
$upscope $end
$upscope $end
$upscope $end
$enddefinitions $end
$comment Show the parameter values. $end
$dumpall
$end
#0
$dumpvars
0(
0'
0&
0%
0$
0#
0"
0!
$end
#100000
1%
1$
#200000
1&
0$
1"
#300000
1#
0%
1'
1$
#400000
0#
1%
0'
0$
0"
1!
#500000
1#
0%
1'
1$
#600000
0'
0&
1(
0$
1"
#700000
1%
1$
